…
``` r
pups_df = 
  janitor::clean_names(pups_df)
```

## `select`

select specific variable

``` r
select(litters_df, group, litter_number, gd0_weight) # after select, gives a data frame with only these variables
```

    ## # A tibble: 49 × 3
    ##    group litter_number   gd0_weight
    ##    <chr> <chr>                <dbl>
    ##  1 Con7  #85                   19.7
    ##  2 Con7  #1/2/95/2             27  
    ##  3 Con7  #5/5/3/83/3-3         26  
    ##  4 Con7  #5/4/2/95/2           28.5
    ##  5 Con7  #4/2/95/3-3           NA  
    ##  6 Con7  #2/2/95/3-2           NA  
    ##  7 Con7  #1/5/3/83/3-3/2       NA  
    ##  8 Con8  #3/83/3-3             NA  
    ##  9 Con8  #2/95/3               NA  
    ## 10 Con8  #3/5/2/2/95           28.5
    ## # ℹ 39 more rows

select a range

``` r
select(litters_df, group:gd_of_birth)
```

    ## # A tibble: 49 × 5
    ##    group litter_number   gd0_weight gd18_weight gd_of_birth
    ##    <chr> <chr>                <dbl>       <dbl>       <dbl>
    ##  1 Con7  #85                   19.7        34.7          20
    ##  2 Con7  #1/2/95/2             27          42            19
    ##  3 Con7  #5/5/3/83/3-3         26          41.4          19
    ##  4 Con7  #5/4/2/95/2           28.5        44.1          19
    ##  5 Con7  #4/2/95/3-3           NA          NA            20
    ##  6 Con7  #2/2/95/3-2           NA          NA            20
    ##  7 Con7  #1/5/3/83/3-3/2       NA          NA            20
    ##  8 Con8  #3/83/3-3             NA          NA            20
    ##  9 Con8  #2/95/3               NA          NA            20
    ## 10 Con8  #3/5/2/2/95           28.5        NA            20
    ## # ℹ 39 more rows

``` r
# keep all variables between this and this
```

select by removal

``` r
select(litters_df, -group)
```

    ## # A tibble: 49 × 7
    ##    litter_number   gd0_weight gd18_weight gd_of_birth pups_born_alive
    ##    <chr>                <dbl>       <dbl>       <dbl>           <dbl>
    ##  1 #85                   19.7        34.7          20               3
    ##  2 #1/2/95/2             27          42            19               8
    ##  3 #5/5/3/83/3-3         26          41.4          19               6
    ##  4 #5/4/2/95/2           28.5        44.1          19               5
    ##  5 #4/2/95/3-3           NA          NA            20               6
    ##  6 #2/2/95/3-2           NA          NA            20               6
    ##  7 #1/5/3/83/3-3/2       NA          NA            20               9
    ##  8 #3/83/3-3             NA          NA            20               9
    ##  9 #2/95/3               NA          NA            20               8
    ## 10 #3/5/2/2/95           28.5        NA            20               8
    ## # ℹ 39 more rows
    ## # ℹ 2 more variables: pups_dead_birth <dbl>, pups_survive <dbl>

``` r
select(litters_df, -(group:gd_of_birth))
```

    ## # A tibble: 49 × 3
    ##    pups_born_alive pups_dead_birth pups_survive
    ##              <dbl>           <dbl>        <dbl>
    ##  1               3               4            3
    ##  2               8               0            7
    ##  3               6               0            5
    ##  4               5               1            4
    ##  5               6               0            6
    ##  6               6               0            4
    ##  7               9               0            9
    ##  8               9               1            8
    ##  9               8               0            8
    ## 10               8               0            8
    ## # ℹ 39 more rows

select by prefix, keeping everything that starts with gd, and also keep
group

``` r
select(litters_df, group, starts_with("gd"))
```

    ## # A tibble: 49 × 4
    ##    group gd0_weight gd18_weight gd_of_birth
    ##    <chr>      <dbl>       <dbl>       <dbl>
    ##  1 Con7        19.7        34.7          20
    ##  2 Con7        27          42            19
    ##  3 Con7        26          41.4          19
    ##  4 Con7        28.5        44.1          19
    ##  5 Con7        NA          NA            20
    ##  6 Con7        NA          NA            20
    ##  7 Con7        NA          NA            20
    ##  8 Con8        NA          NA            20
    ##  9 Con8        NA          NA            20
    ## 10 Con8        28.5        NA            20
    ## # ℹ 39 more rows

``` r
# also we have end with & contain
```

rearrange by selecting

``` r
select(litters_df, starts_with("gd"), group) #rearrange the order
```

    ## # A tibble: 49 × 4
    ##    gd0_weight gd18_weight gd_of_birth group
    ##         <dbl>       <dbl>       <dbl> <chr>
    ##  1       19.7        34.7          20 Con7 
    ##  2       27          42            19 Con7 
    ##  3       26          41.4          19 Con7 
    ##  4       28.5        44.1          19 Con7 
    ##  5       NA          NA            20 Con7 
    ##  6       NA          NA            20 Con7 
    ##  7       NA          NA            20 Con7 
    ##  8       NA          NA            20 Con8 
    ##  9       NA          NA            20 Con8 
    ## 10       28.5        NA            20 Con8 
    ## # ℹ 39 more rows

``` r
select(litters_df, litter_number, everything()) # first give litter_number and then everything else
```

    ## # A tibble: 49 × 8
    ##    litter_number   group gd0_weight gd18_weight gd_of_birth pups_born_alive
    ##    <chr>           <chr>      <dbl>       <dbl>       <dbl>           <dbl>
    ##  1 #85             Con7        19.7        34.7          20               3
    ##  2 #1/2/95/2       Con7        27          42            19               8
    ##  3 #5/5/3/83/3-3   Con7        26          41.4          19               6
    ##  4 #5/4/2/95/2     Con7        28.5        44.1          19               5
    ##  5 #4/2/95/3-3     Con7        NA          NA            20               6
    ##  6 #2/2/95/3-2     Con7        NA          NA            20               6
    ##  7 #1/5/3/83/3-3/2 Con7        NA          NA            20               9
    ##  8 #3/83/3-3       Con8        NA          NA            20               9
    ##  9 #2/95/3         Con8        NA          NA            20               8
    ## 10 #3/5/2/2/95     Con8        28.5        NA            20               8
    ## # ℹ 39 more rows
    ## # ℹ 2 more variables: pups_dead_birth <dbl>, pups_survive <dbl>

``` r
relocate(litters_df, litter_number) # does the same thing with select and everything
```

    ## # A tibble: 49 × 8
    ##    litter_number   group gd0_weight gd18_weight gd_of_birth pups_born_alive
    ##    <chr>           <chr>      <dbl>       <dbl>       <dbl>           <dbl>
    ##  1 #85             Con7        19.7        34.7          20               3
    ##  2 #1/2/95/2       Con7        27          42            19               8
    ##  3 #5/5/3/83/3-3   Con7        26          41.4          19               6
    ##  4 #5/4/2/95/2     Con7        28.5        44.1          19               5
    ##  5 #4/2/95/3-3     Con7        NA          NA            20               6
    ##  6 #2/2/95/3-2     Con7        NA          NA            20               6
    ##  7 #1/5/3/83/3-3/2 Con7        NA          NA            20               9
    ##  8 #3/83/3-3       Con8        NA          NA            20               9
    ##  9 #2/95/3         Con8        NA          NA            20               8
    ## 10 #3/5/2/2/95     Con8        28.5        NA            20               8
    ## # ℹ 39 more rows
    ## # ℹ 2 more variables: pups_dead_birth <dbl>, pups_survive <dbl>

rename by selecting

``` r
select(litters_df, GROUP = group, everything()) # rename this variable 
```

    ## # A tibble: 49 × 8
    ##    GROUP litter_number   gd0_weight gd18_weight gd_of_birth pups_born_alive
    ##    <chr> <chr>                <dbl>       <dbl>       <dbl>           <dbl>
    ##  1 Con7  #85                   19.7        34.7          20               3
    ##  2 Con7  #1/2/95/2             27          42            19               8
    ##  3 Con7  #5/5/3/83/3-3         26          41.4          19               6
    ##  4 Con7  #5/4/2/95/2           28.5        44.1          19               5
    ##  5 Con7  #4/2/95/3-3           NA          NA            20               6
    ##  6 Con7  #2/2/95/3-2           NA          NA            20               6
    ##  7 Con7  #1/5/3/83/3-3/2       NA          NA            20               9
    ##  8 Con8  #3/83/3-3             NA          NA            20               9
    ##  9 Con8  #2/95/3               NA          NA            20               8
    ## 10 Con8  #3/5/2/2/95           28.5        NA            20               8
    ## # ℹ 39 more rows
    ## # ℹ 2 more variables: pups_dead_birth <dbl>, pups_survive <dbl>

``` r
rename(litters_df, GROUP = group)
```

    ## # A tibble: 49 × 8
    ##    GROUP litter_number   gd0_weight gd18_weight gd_of_birth pups_born_alive
    ##    <chr> <chr>                <dbl>       <dbl>       <dbl>           <dbl>
    ##  1 Con7  #85                   19.7        34.7          20               3
    ##  2 Con7  #1/2/95/2             27          42            19               8
    ##  3 Con7  #5/5/3/83/3-3         26          41.4          19               6
    ##  4 Con7  #5/4/2/95/2           28.5        44.1          19               5
    ##  5 Con7  #4/2/95/3-3           NA          NA            20               6
    ##  6 Con7  #2/2/95/3-2           NA          NA            20               6
    ##  7 Con7  #1/5/3/83/3-3/2       NA          NA            20               9
    ##  8 Con8  #3/83/3-3             NA          NA            20               9
    ##  9 Con8  #2/95/3               NA          NA            20               8
    ## 10 Con8  #3/5/2/2/95           28.5        NA            20               8
    ## # ℹ 39 more rows
    ## # ℹ 2 more variables: pups_dead_birth <dbl>, pups_survive <dbl>

What if i only select one variable…?

``` r
select(litters_df, group) # give me a data frame with just one variable 
```

    ## # A tibble: 49 × 1
    ##    group
    ##    <chr>
    ##  1 Con7 
    ##  2 Con7 
    ##  3 Con7 
    ##  4 Con7 
    ##  5 Con7 
    ##  6 Con7 
    ##  7 Con7 
    ##  8 Con8 
    ##  9 Con8 
    ## 10 Con8 
    ## # ℹ 39 more rows
…
    ##  [1] "Con7" "Con7" "Con7" "Con7" "Con7" "Con7" "Con7" "Con8" "Con8" "Con8"
    ## [11] "Con8" "Con8" "Con8" "Con8" "Con8" "Mod7" "Mod7" "Mod7" "Mod7" "Mod7"
    ## [21] "Mod7" "Mod7" "Mod7" "Mod7" "Mod7" "Mod7" "Mod7" "Low7" "Low7" "Low7"
    ## [31] "Low7" "Low7" "Low7" "Low7" "Low7" "Mod8" "Mod8" "Mod8" "Mod8" "Mod8"
    ## [41] "Mod8" "Mod8" "Low8" "Low8" "Low8" "Low8" "Low8" "Low8" "Low8"

Learning Assessment: In the pups data, select the columns containing
litter number, sex, and PD ears.

``` r
select(pups_df, litter_number, sex, pd_ears)
```

    ## # A tibble: 313 × 3
    ##    litter_number   sex pd_ears
    ##    <chr>         <dbl>   <dbl>
    ##  1 #85               1       4
    ##  2 #85               1       4
    ##  3 #1/2/95/2         1       5
    ##  4 #1/2/95/2         1       5
    ##  5 #5/5/3/83/3-3     1       5
    ##  6 #5/5/3/83/3-3     1       5
    ##  7 #5/4/2/95/2       1      NA
    ##  8 #4/2/95/3-3       1       4
    ##  9 #4/2/95/3-3       1       4
    ## 10 #2/2/95/3-2       1       4
    ## # ℹ 303 more rows
…
    ## # A tibble: 0 × 8
    ## # ℹ 8 variables: group <chr>, litter_number <chr>, gd0_weight <dbl>,
    ## #   gd18_weight <dbl>, gd_of_birth <dbl>, pups_born_alive <dbl>,
    ## #   pups_dead_birth <dbl>, pups_survive <dbl>

look for more than 5 pups alive

``` r
filter(litters_df, pups_born_alive > 5)
```

    ## # A tibble: 41 × 8
    ##    group litter_number   gd0_weight gd18_weight gd_of_birth pups_born_alive
    ##    <chr> <chr>                <dbl>       <dbl>       <dbl>           <dbl>
    ##  1 Con7  #1/2/95/2             27          42            19               8
    ##  2 Con7  #5/5/3/83/3-3         26          41.4          19               6
    ##  3 Con7  #4/2/95/3-3           NA          NA            20               6
    ##  4 Con7  #2/2/95/3-2           NA          NA            20               6
    ##  5 Con7  #1/5/3/83/3-3/2       NA          NA            20               9
    ##  6 Con8  #3/83/3-3             NA          NA            20               9
    ##  7 Con8  #2/95/3               NA          NA            20               8
    ##  8 Con8  #3/5/2/2/95           28.5        NA            20               8
    ##  9 Con8  #5/4/3/83/3           28          NA            19               9
    ## 10 Con8  #1/6/2/2/95-2         NA          NA            20               7
    ## # ℹ 31 more rows
    ## # ℹ 2 more variables: pups_dead_birth <dbl>, pups_survive <dbl>

``` r
filter(litters_df, pups_born_alive >= 5)
```

    ## # A tibble: 46 × 8
    ##    group litter_number   gd0_weight gd18_weight gd_of_birth pups_born_alive
    ##    <chr> <chr>                <dbl>       <dbl>       <dbl>           <dbl>
    ##  1 Con7  #1/2/95/2             27          42            19               8
    ##  2 Con7  #5/5/3/83/3-3         26          41.4          19               6
    ##  3 Con7  #5/4/2/95/2           28.5        44.1          19               5
    ##  4 Con7  #4/2/95/3-3           NA          NA            20               6
    ##  5 Con7  #2/2/95/3-2           NA          NA            20               6
    ##  6 Con7  #1/5/3/83/3-3/2       NA          NA            20               9
    ##  7 Con8  #3/83/3-3             NA          NA            20               9
    ##  8 Con8  #2/95/3               NA          NA            20               8
    ##  9 Con8  #3/5/2/2/95           28.5        NA            20               8
    ## 10 Con8  #5/4/3/83/3           28          NA            19               9
    ## # ℹ 36 more rows
    ## # ℹ 2 more variables: pups_dead_birth <dbl>, pups_survive <dbl>
…
look for non-matches

``` r
filter(litters_df, pups_born_alive != 6)
```

    ## # A tibble: 43 × 8
    ##    group litter_number   gd0_weight gd18_weight gd_of_birth pups_born_alive
    ##    <chr> <chr>                <dbl>       <dbl>       <dbl>           <dbl>
    ##  1 Con7  #85                   19.7        34.7          20               3
    ##  2 Con7  #1/2/95/2             27          42            19               8
    ##  3 Con7  #5/4/2/95/2           28.5        44.1          19               5
    ##  4 Con7  #1/5/3/83/3-3/2       NA          NA            20               9
    ##  5 Con8  #3/83/3-3             NA          NA            20               9
    ##  6 Con8  #2/95/3               NA          NA            20               8
    ##  7 Con8  #3/5/2/2/95           28.5        NA            20               8
    ##  8 Con8  #5/4/3/83/3           28          NA            19               9
    ##  9 Con8  #1/6/2/2/95-2         NA          NA            20               7
    ## 10 Con8  #3/5/3/83/3-3-2       NA          NA            20               8
    ## # ℹ 33 more rows
    ## # ℹ 2 more variables: pups_dead_birth <dbl>, pups_survive <dbl>
…
